…
3. Wrangling (40 pts)

# Use all 6 dplyr functions () Previous to doing this
# mutation, I had no idea that the current 'Temperature'
# variable was just a mean temperature between the max and
# min temperatures.
combinedNONA %>% mutate(MeanTemperature = (`Maximum Temperature` + 
    `Minimum Temperature`)/2)

## # A tibble: 1,870 x 12
##    endTime   artistName   trackName   msPlayed `Maximum Temper… `Minimum Temper…
##    <chr>     <chr>        <chr>          <dbl>            <dbl>            <dbl>
##  1 2020-07-… Phantogram   When I'm S…    29419             78.5             78.5
##  2 2020-07-… Mild Orange  Making Thi…     5712             78.5             78.5
##  3 2020-07-… alt-J        Left Hand …     3459             78.5             78.5
##  4 2020-07-… STRFKR       Budapest (…     4887             78.5             78.5
##  5 2020-07-… STRFKR       Deep Dream      6025             78.5             78.5
##  6 2020-07-… Wilson Pick… 634-5789        1451             75.9             75.9
##  7 2020-07-… Martha Reev… (Love Is L…    28688             75.9             75.9
##  8 2020-07-… Lee Fields … Blessed wi…     1962             75.9             75.9
##  9 2020-07-… Yola         I Don't Wa…     1962             75.9             75.9
## 10 2020-07-… Natalie Cole This Will …     5259             75.9             75.9
## # … with 1,860 more rows, and 6 more variables: Temperature <dbl>,
## #   Wind Speed <dbl>, Wind Direction <dbl>, Relative Humidity <dbl>,
## #   Conditions <chr>, MeanTemperature <dbl>

combinedNONA %>% group_by("Wind Speed") %>% summarize(Temperature)

## # A tibble: 1,870 x 2
## # Groups:   "Wind Speed" [1]
##    `"Wind Speed"` Temperature
##    <chr>                <dbl>
##  1 Wind Speed            78.5
##  2 Wind Speed            78.5
##  3 Wind Speed            78.5
##  4 Wind Speed            78.5
##  5 Wind Speed            78.5
##  6 Wind Speed            75.9
##  7 Wind Speed            75.9
##  8 Wind Speed            75.9
##  9 Wind Speed            75.9
## 10 Wind Speed            75.9
## # … with 1,860 more rows

combinedNONA %>% arrange(desc(msPlayed))

## # A tibble: 1,870 x 11
##    endTime   artistName  trackName    msPlayed `Maximum Temper… `Minimum Temper…
##    <chr>     <chr>       <chr>           <dbl>            <dbl>            <dbl>
##  1 2021-02-… Above & Be… Alone Tonig…   690201             52.4             52.4
##  2 2020-07-… Little Dra… Lover Chant…   420503             88.8             88.8
##  3 2020-10-… Nio Garcia  Te Boté - R…   417920             40.9             40.9
##  4 2020-10-… Nio Garcia  Te Boté - R…   417920             41.2             41.2
##  5 2020-12-… Romare      Je T’aime      416292             47.7             47.7
##  6 2021-02-… trentemøll… Take Me Int…   406093             50.5             50.5
##  7 2020-09-… Injury Res… Ttktv          401933             75.2             75.2
##  8 2020-12-… Molotov     Chinga Tu M…   380044             38.3             38.3
##  9 2021-02-… Low Hum     Comatose       376226             69.2             69.2
## 10 2021-01-… Grimes      We Apprecia…   369777             58.7             58.7
## # … with 1,860 more rows, and 5 more variables: Temperature <dbl>,
## #   Wind Speed <dbl>, Wind Direction <dbl>, Relative Humidity <dbl>,
## #   Conditions <chr>

combinedNONA %>% select(`Date/Time` = endTime, Plays = msPlayed)

## # A tibble: 1,870 x 2
##    `Date/Time`         Plays
##    <chr>               <dbl>
##  1 2020-07-17 05:15:00 29419
##  2 2020-07-17 05:15:00  5712
##  3 2020-07-17 05:15:00  3459
##  4 2020-07-17 05:15:00  4887
##  5 2020-07-17 05:15:00  6025
##  6 2020-07-17 05:20:00  1451
##  7 2020-07-17 05:20:00 28688
##  8 2020-07-17 05:20:00  1962
##  9 2020-07-17 05:20:00  1962
## 10 2020-07-17 05:20:00  5259
## # … with 1,860 more rows

combinedNONA %>% filter(Temperature > 90)

## # A tibble: 191 x 11
##    endTime   artistName  trackName    msPlayed `Maximum Temper… `Minimum Temper…
##    <chr>     <chr>       <chr>           <dbl>            <dbl>            <dbl>
##  1 2020-07-… Wide Eyes   Escape Velo…    16378             98.5             98.5
##  2 2020-07-… The Cardig… Lovefool        24236             95.4             95.4
##  3 2020-07-… JAWNY       Honeypie       135521             98.4             98.4
##  4 2020-07-… Rezz        Someone Else    66090             95.8             95.8
##  5 2020-07-… Surfaces    Learn To Fly   159402             95.8             95.8
##  6 2020-07-… Washed Out  It All Feel…    41021             92.9             92.9
##  7 2020-07-… Grimes      Realiti        306532             94               94  
##  8 2020-07-… George Har… What Is Lif…   156641             91.7             91.7
##  9 2020-07-… Phoenix     Too Young      197973             90.9             90.9
## 10 2020-07-… TV On The … Will Do        224986             91.5             91.5
## # … with 181 more rows, and 5 more variables: Temperature <dbl>,
## #   Wind Speed <dbl>, Wind Direction <dbl>, Relative Humidity <dbl>,
## #   Conditions <chr>
…
